  (:action move-tile-left
    :parameters (tile11 row3 col3 col2)
    :precondition
      (and
        (is-tile tile11)
        (is-row row3)
        (is-column col3)
        (is-column col2)
        (next-column col2 col3)
        (tile-at tile11 row3 col3)
        (is-blank row3 col2)
      )
    :effect
      (and
        (not
          (tile-at tile11 row3 col3)
        )
        (not
          (is-blank row3 col2)
        )
        (tile-at tile11 row3 col2)
        (is-blank row3 col3)
      )
  )



  (:action move-tile-down
    :parameters (tile14 row2 row3 col3)
    :precondition
      (and
        (is-tile tile14)
        (is-row row2)
        (is-row row3)
        (is-column col3)
        (next-row row2 row3)
        (tile-at tile14 row2 col3)
        (is-blank row3 col3)
      )
    :effect
      (and
        (not
          (tile-at tile14 row2 col3)
        )
        (not
          (is-blank row3 col3)
        )
        (tile-at tile14 row3 col3)
        (is-blank row2 col3)
      )
  )


  (:action move-tile-left
    :parameters (tile13 row2 col4 col3)
    :precondition
      (and
        (is-tile tile13)
        (is-row row2)
        (is-column col4)
        (is-column col3)
        (next-column col3 col4)
        (tile-at tile13 row2 col4)
        (is-blank row2 col3)
      )
    :effect
      (and
        (not
          (tile-at tile13 row2 col4)
        )
        (not
          (is-blank row2 col3)
        )
        (tile-at tile13 row2 col3)
        (is-blank row2 col4)
      )
  )


  (:action move-tile-up
    :parameters (tile1 row3 row2 col4)
    :precondition
      (and
        (is-tile tile1)
        (is-row row3)
        (is-row row2)
        (is-column col4)
        (next-row row2 row3)
        (tile-at tile1 row3 col4)
        (is-blank row2 col4)
      )
    :effect
      (and
        (not
          (tile-at tile1 row3 col4)
        )
        (not
          (is-blank row2 col4)
        )
        (tile-at tile1 row2 col4)
        (is-blank row3 col4)
      )
  )


  (:action move-tile-up
    :parameters (tile8 row4 row3 col4)
    :precondition
      (and
        (is-tile tile8)
        (is-row row4)
        (is-row row3)
        (is-column col4)
        (next-row row3 row4)
        (tile-at tile8 row4 col4)
        (is-blank row3 col4)
      )
    :effect
      (and
        (not
          (tile-at tile8 row4 col4)
        )
        (not
          (is-blank row3 col4)
        )
        (tile-at tile8 row3 col4)
        (is-blank row4 col4)
      )
  )


  (:action move-tile-right
    :parameters (tile10 row4 col3 col4)
    :precondition
      (and
        (is-tile tile10)
        (is-row row4)
        (is-column col3)
        (is-column col4)
        (next-column col3 col4)
        (tile-at tile10 row4 col3)
        (is-blank row4 col4)
      )
    :effect
      (and
        (not
          (tile-at tile10 row4 col3)
        )
        (not
          (is-blank row4 col4)
        )
        (tile-at tile10 row4 col4)
        (is-blank row4 col3)
      )
  )


  (:action move-tile-down
    :parameters (tile14 row3 row4 col3)
    :precondition
      (and
        (is-tile tile14)
        (is-row row3)
        (is-row row4)
        (is-column col3)
        (next-row row3 row4)
        (tile-at tile14 row3 col3)
        (is-blank row4 col3)
      )
    :effect
      (and
        (not
          (tile-at tile14 row3 col3)
        )
        (not
          (is-blank row4 col3)
        )
        (tile-at tile14 row4 col3)
        (is-blank row3 col3)
      )
  )


  (:action move-tile-right
    :parameters (tile11 row3 col2 col3)
    :precondition
      (and
        (is-tile tile11)
        (is-row row3)
        (is-column col2)
        (is-column col3)
        (next-column col2 col3)
        (tile-at tile11 row3 col2)
        (is-blank row3 col3)
      )
    :effect
      (and
        (not
          (tile-at tile11 row3 col2)
        )
        (not
          (is-blank row3 col3)
        )
        (tile-at tile11 row3 col3)
        (is-blank row3 col2)
      )
  )


  (:action move-tile-up
    :parameters (tile4 row4 row3 col2)
    :precondition
      (and
        (is-tile tile4)
        (is-row row4)
        (is-row row3)
        (is-column col2)
        (next-row row3 row4)
        (tile-at tile4 row4 col2)
        (is-blank row3 col2)
      )
    :effect
      (and
        (not
          (tile-at tile4 row4 col2)
        )
        (not
          (is-blank row3 col2)
        )
        (tile-at tile4 row3 col2)
        (is-blank row4 col2)
      )
  )


  (:action move-tile-left
    :parameters (tile14 row4 col3 col2)
    :precondition
      (and
        (is-tile tile14)
        (is-row row4)
        (is-column col3)
        (is-column col2)
        (next-column col2 col3)
        (tile-at tile14 row4 col3)
        (is-blank row4 col2)
      )
    :effect
      (and
        (not
          (tile-at tile14 row4 col3)
        )
        (not
          (is-blank row4 col2)
        )
        (tile-at tile14 row4 col2)
        (is-blank row4 col3)
      )
  )


  (:action move-tile-down
    :parameters (tile11 row3 row4 col3)
    :precondition
      (and
        (is-tile tile11)
        (is-row row3)
        (is-row row4)
        (is-column col3)
        (next-row row3 row4)
        (tile-at tile11 row3 col3)
        (is-blank row4 col3)
      )
    :effect
      (and
        (not
          (tile-at tile11 row3 col3)
        )
        (not
          (is-blank row4 col3)
        )
        (tile-at tile11 row4 col3)
        (is-blank row3 col3)
      )
  )


  (:action move-tile-down
    :parameters (tile13 row2 row3 col3)
    :precondition
      (and
        (is-tile tile13)
        (is-row row2)
        (is-row row3)
        (is-column col3)
        (next-row row2 row3)
        (tile-at tile13 row2 col3)
        (is-blank row3 col3)
      )
    :effect
      (and
        (not
          (tile-at tile13 row2 col3)
        )
        (not
          (is-blank row3 col3)
        )
        (tile-at tile13 row3 col3)
        (is-blank row2 col3)
      )
  )


  (:action move-tile-left
    :parameters (tile1 row2 col4 col3)
    :precondition
      (and
        (is-tile tile1)
        (is-row row2)
        (is-column col4)
        (is-column col3)
        (next-column col3 col4)
        (tile-at tile1 row2 col4)
        (is-blank row2 col3)
      )
    :effect
      (and
        (not
          (tile-at tile1 row2 col4)
        )
        (not
          (is-blank row2 col3)
        )
        (tile-at tile1 row2 col3)
        (is-blank row2 col4)
      )
  )


  (:action move-tile-up
    :parameters (tile8 row3 row2 col4)
    :precondition
      (and
        (is-tile tile8)
        (is-row row3)
        (is-row row2)
        (is-column col4)
        (next-row row2 row3)
        (tile-at tile8 row3 col4)
        (is-blank row2 col4)
      )
    :effect
      (and
        (not
          (tile-at tile8 row3 col4)
        )
        (not
          (is-blank row2 col4)
        )
        (tile-at tile8 row2 col4)
        (is-blank row3 col4)
      )
  )


  (:action move-tile-up
    :parameters (tile10 row4 row3 col4)
    :precondition
      (and
        (is-tile tile10)
        (is-row row4)
        (is-row row3)
        (is-column col4)
        (next-row row3 row4)
        (tile-at tile10 row4 col4)
        (is-blank row3 col4)
      )
    :effect
      (and
        (not
          (tile-at tile10 row4 col4)
        )
        (not
          (is-blank row3 col4)
        )
        (tile-at tile10 row3 col4)
        (is-blank row4 col4)
      )
  )


  (:action move-tile-right
    :parameters (tile11 row4 col3 col4)
    :precondition
      (and
        (is-tile tile11)
        (is-row row4)
        (is-column col3)
        (is-column col4)
        (next-column col3 col4)
        (tile-at tile11 row4 col3)
        (is-blank row4 col4)
      )
    :effect
      (and
        (not
          (tile-at tile11 row4 col3)
        )
        (not
          (is-blank row4 col4)
        )
        (tile-at tile11 row4 col4)
        (is-blank row4 col3)
      )
  )


  (:action move-tile-down
    :parameters (tile13 row3 row4 col3)
    :precondition
      (and
        (is-tile tile13)
        (is-row row3)
        (is-row row4)
        (is-column col3)
        (next-row row3 row4)
        (tile-at tile13 row3 col3)
        (is-blank row4 col3)
      )
    :effect
      (and
        (not
          (tile-at tile13 row3 col3)
        )
        (not
          (is-blank row4 col3)
        )
        (tile-at tile13 row4 col3)
        (is-blank row3 col3)
      )
  )


  (:action move-tile-right
    :parameters (tile4 row3 col2 col3)
    :precondition
      (and
        (is-tile tile4)
        (is-row row3)
        (is-column col2)
        (is-column col3)
        (next-column col2 col3)
        (tile-at tile4 row3 col2)
        (is-blank row3 col3)
      )
    :effect
      (and
        (not
          (tile-at tile4 row3 col2)
        )
        (not
          (is-blank row3 col3)
        )
        (tile-at tile4 row3 col3)
        (is-blank row3 col2)
      )
  )


  (:action move-tile-down
    :parameters (tile6 row2 row3 col2)
    :precondition
      (and
        (is-tile tile6)
        (is-row row2)
        (is-row row3)
        (is-column col2)
        (next-row row2 row3)
        (tile-at tile6 row2 col2)
        (is-blank row3 col2)
      )
    :effect
      (and
        (not
          (tile-at tile6 row2 col2)
        )
        (not
          (is-blank row3 col2)
        )
        (tile-at tile6 row3 col2)
        (is-blank row2 col2)
      )
  )


  (:action move-tile-left
    :parameters (tile1 row2 col3 col2)
    :precondition
      (and
        (is-tile tile1)
        (is-row row2)
        (is-column col3)
        (is-column col2)
        (next-column col2 col3)
        (tile-at tile1 row2 col3)
        (is-blank row2 col2)
      )
    :effect
      (and
        (not
          (tile-at tile1 row2 col3)
        )
        (not
          (is-blank row2 col2)
        )
        (tile-at tile1 row2 col2)
        (is-blank row2 col3)
      )
  )


  (:action move-tile-down
    :parameters (tile12 row1 row2 col3)
    :precondition
      (and
        (is-tile tile12)
        (is-row row1)
        (is-row row2)
        (is-column col3)
        (next-row row1 row2)
        (tile-at tile12 row1 col3)
        (is-blank row2 col3)
      )
    :effect
      (and
        (not
          (tile-at tile12 row1 col3)
        )
        (not
          (is-blank row2 col3)
        )
        (tile-at tile12 row2 col3)
        (is-blank row1 col3)
      )
  )


  (:action move-tile-left
    :parameters (tile7 row1 col4 col3)
    :precondition
      (and
        (is-tile tile7)
        (is-row row1)
        (is-column col4)
        (is-column col3)
        (next-column col3 col4)
        (tile-at tile7 row1 col4)
        (is-blank row1 col3)
      )
    :effect
      (and
        (not
          (tile-at tile7 row1 col4)
        )
        (not
          (is-blank row1 col3)
        )
        (tile-at tile7 row1 col3)
        (is-blank row1 col4)
      )
  )


  (:action move-tile-up
    :parameters (tile8 row2 row1 col4)
    :precondition
      (and
        (is-tile tile8)
        (is-row row2)
        (is-row row1)
        (is-column col4)
        (next-row row1 row2)
        (tile-at tile8 row2 col4)
        (is-blank row1 col4)
      )
    :effect
      (and
        (not
          (tile-at tile8 row2 col4)
        )
        (not
          (is-blank row1 col4)
        )
        (tile-at tile8 row1 col4)
        (is-blank row2 col4)
      )
  )


  (:action move-tile-right
    :parameters (tile12 row2 col3 col4)
    :precondition
      (and
        (is-tile tile12)
        (is-row row2)
        (is-column col3)
        (is-column col4)
        (next-column col3 col4)
        (tile-at tile12 row2 col3)
        (is-blank row2 col4)
      )
    :effect
      (and
        (not
          (tile-at tile12 row2 col3)
        )
        (not
          (is-blank row2 col4)
        )
        (tile-at tile12 row2 col4)
        (is-blank row2 col3)
      )
  )


  (:action move-tile-up
    :parameters (tile4 row3 row2 col3)
    :precondition
      (and
        (is-tile tile4)
        (is-row row3)
        (is-row row2)
        (is-column col3)
        (next-row row2 row3)
        (tile-at tile4 row3 col3)
        (is-blank row2 col3)
      )
    :effect
      (and
        (not
          (tile-at tile4 row3 col3)
        )
        (not
          (is-blank row2 col3)
        )
        (tile-at tile4 row2 col3)
        (is-blank row3 col3)
      )
  )


  (:action move-tile-left
    :parameters (tile10 row3 col4 col3)
    :precondition
      (and
        (is-tile tile10)
        (is-row row3)
        (is-column col4)
        (is-column col3)
        (next-column col3 col4)
        (tile-at tile10 row3 col4)
        (is-blank row3 col3)
      )
    :effect
      (and
        (not
          (tile-at tile10 row3 col4)
        )
        (not
          (is-blank row3 col3)
        )
        (tile-at tile10 row3 col3)
        (is-blank row3 col4)
      )
  )


  (:action move-tile-down
    :parameters (tile12 row2 row3 col4)
    :precondition
      (and
        (is-tile tile12)
        (is-row row2)
        (is-row row3)
        (is-column col4)
        (next-row row2 row3)
        (tile-at tile12 row2 col4)
        (is-blank row3 col4)
      )
    :effect
      (and
        (not
          (tile-at tile12 row2 col4)
        )
        (not
          (is-blank row3 col4)
        )
        (tile-at tile12 row3 col4)
        (is-blank row2 col4)
      )
  )


  (:action move-tile-right
    :parameters (tile4 row2 col3 col4)
    :precondition
      (and
        (is-tile tile4)
        (is-row row2)
        (is-column col3)
        (is-column col4)
        (next-column col3 col4)
        (tile-at tile4 row2 col3)
        (is-blank row2 col4)
      )
    :effect
      (and
        (not
          (tile-at tile4 row2 col3)
        )
        (not
          (is-blank row2 col4)
        )
        (tile-at tile4 row2 col4)
        (is-blank row2 col3)
      )
  )


  (:action move-tile-down
    :parameters (tile7 row1 row2 col3)
    :precondition
      (and
        (is-tile tile7)
        (is-row row1)
        (is-row row2)
        (is-column col3)
        (next-row row1 row2)
        (tile-at tile7 row1 col3)
        (is-blank row2 col3)
      )
    :effect
      (and
        (not
          (tile-at tile7 row1 col3)
        )
        (not
          (is-blank row2 col3)
        )
        (tile-at tile7 row2 col3)
        (is-blank row1 col3)
      )
  )


  (:action move-tile-right
    :parameters (tile2 row1 col2 col3)
    :precondition
      (and
        (is-tile tile2)
        (is-row row1)
        (is-column col2)
        (is-column col3)
        (next-column col2 col3)
        (tile-at tile2 row1 col2)
        (is-blank row1 col3)
      )
    :effect
      (and
        (not
          (tile-at tile2 row1 col2)
        )
        (not
          (is-blank row1 col3)
        )
        (tile-at tile2 row1 col3)
        (is-blank row1 col2)
      )
  )


  (:action move-tile-up
    :parameters (tile1 row2 row1 col2)
    :precondition
      (and
        (is-tile tile1)
        (is-row row2)
        (is-row row1)
        (is-column col2)
        (next-row row1 row2)
        (tile-at tile1 row2 col2)
        (is-blank row1 col2)
      )
    :effect
      (and
        (not
          (tile-at tile1 row2 col2)
        )
        (not
          (is-blank row1 col2)
        )
        (tile-at tile1 row1 col2)
        (is-blank row2 col2)
      )
  )


  (:action move-tile-up
    :parameters (tile6 row3 row2 col2)
    :precondition
      (and
        (is-tile tile6)
        (is-row row3)
        (is-row row2)
        (is-column col2)
        (next-row row2 row3)
        (tile-at tile6 row3 col2)
        (is-blank row2 col2)
      )
    :effect
      (and
        (not
          (tile-at tile6 row3 col2)
        )
        (not
          (is-blank row2 col2)
        )
        (tile-at tile6 row2 col2)
        (is-blank row3 col2)
      )
  )


  (:action move-tile-right
    :parameters (tile3 row3 col1 col2)
    :precondition
      (and
        (is-tile tile3)
        (is-row row3)
        (is-column col1)
        (is-column col2)
        (next-column col1 col2)
        (tile-at tile3 row3 col1)
        (is-blank row3 col2)
      )
    :effect
      (and
        (not
          (tile-at tile3 row3 col1)
        )
        (not
          (is-blank row3 col2)
        )
        (tile-at tile3 row3 col2)
        (is-blank row3 col1)
      )
  )


  (:action move-tile-down
    :parameters (tile5 row2 row3 col1)
    :precondition
      (and
        (is-tile tile5)
        (is-row row2)
        (is-row row3)
        (is-column col1)
        (next-row row2 row3)
        (tile-at tile5 row2 col1)
        (is-blank row3 col1)
      )
    :effect
      (and
        (not
          (tile-at tile5 row2 col1)
        )
        (not
          (is-blank row3 col1)
        )
        (tile-at tile5 row3 col1)
        (is-blank row2 col1)
      )
  )


  (:action move-tile-down
    :parameters (tile9 row1 row2 col1)
    :precondition
      (and
        (is-tile tile9)
        (is-row row1)
        (is-row row2)
        (is-column col1)
        (next-row row1 row2)
        (tile-at tile9 row1 col1)
        (is-blank row2 col1)
      )
    :effect
      (and
        (not
          (tile-at tile9 row1 col1)
        )
        (not
          (is-blank row2 col1)
        )
        (tile-at tile9 row2 col1)
        (is-blank row1 col1)
      )
  )


  (:action move-tile-left
    :parameters (tile1 row1 col2 col1)
    :precondition
      (and
        (is-tile tile1)
        (is-row row1)
        (is-column col2)
        (is-column col1)
        (next-column col1 col2)
        (tile-at tile1 row1 col2)
        (is-blank row1 col1)
      )
    :effect
      (and
        (not
          (tile-at tile1 row1 col2)
        )
        (not
          (is-blank row1 col1)
        )
        (tile-at tile1 row1 col1)
        (is-blank row1 col2)
      )
  )


  (:action move-tile-up
    :parameters (tile6 row2 row1 col2)
    :precondition
      (and
        (is-tile tile6)
        (is-row row2)
        (is-row row1)
        (is-column col2)
        (next-row row1 row2)
        (tile-at tile6 row2 col2)
        (is-blank row1 col2)
      )
    :effect
      (and
        (not
          (tile-at tile6 row2 col2)
        )
        (not
          (is-blank row1 col2)
        )
        (tile-at tile6 row1 col2)
        (is-blank row2 col2)
      )
  )


  (:action move-tile-up
    :parameters (tile3 row3 row2 col2)
    :precondition
      (and
        (is-tile tile3)
        (is-row row3)
        (is-row row2)
        (is-column col2)
        (next-row row2 row3)
        (tile-at tile3 row3 col2)
        (is-blank row2 col2)
      )
    :effect
      (and
        (not
          (tile-at tile3 row3 col2)
        )
        (not
          (is-blank row2 col2)
        )
        (tile-at tile3 row2 col2)
        (is-blank row3 col2)
      )
  )


  (:action move-tile-left
    :parameters (tile10 row3 col3 col2)
    :precondition
      (and
        (is-tile tile10)
        (is-row row3)
        (is-column col3)
        (is-column col2)
        (next-column col2 col3)
        (tile-at tile10 row3 col3)
        (is-blank row3 col2)
      )
    :effect
      (and
        (not
          (tile-at tile10 row3 col3)
        )
        (not
          (is-blank row3 col2)
        )
        (tile-at tile10 row3 col2)
        (is-blank row3 col3)
      )
  )


  (:action move-tile-down
    :parameters (tile7 row2 row3 col3)
    :precondition
      (and
        (is-tile tile7)
        (is-row row2)
        (is-row row3)
        (is-column col3)
        (next-row row2 row3)
        (tile-at tile7 row2 col3)
        (is-blank row3 col3)
      )
    :effect
      (and
        (not
          (tile-at tile7 row2 col3)
        )
        (not
          (is-blank row3 col3)
        )
        (tile-at tile7 row3 col3)
        (is-blank row2 col3)
      )
  )


  (:action move-tile-right
    :parameters (tile3 row2 col2 col3)
    :precondition
      (and
        (is-tile tile3)
        (is-row row2)
        (is-column col2)
        (is-column col3)
        (next-column col2 col3)
        (tile-at tile3 row2 col2)
        (is-blank row2 col3)
      )
    :effect
      (and
        (not
          (tile-at tile3 row2 col2)
        )
        (not
          (is-blank row2 col3)
        )
        (tile-at tile3 row2 col3)
        (is-blank row2 col2)
      )
  )


  (:action move-tile-right
    :parameters (tile9 row2 col1 col2)
    :precondition
      (and
        (is-tile tile9)
        (is-row row2)
        (is-column col1)
        (is-column col2)
        (next-column col1 col2)
        (tile-at tile9 row2 col1)
        (is-blank row2 col2)
      )
    :effect
      (and
        (not
          (tile-at tile9 row2 col1)
        )
        (not
          (is-blank row2 col2)
        )
        (tile-at tile9 row2 col2)
        (is-blank row2 col1)
      )
  )


  (:action move-tile-up
    :parameters (tile5 row3 row2 col1)
    :precondition
      (and
        (is-tile tile5)
        (is-row row3)
        (is-row row2)
        (is-column col1)
        (next-row row2 row3)
        (tile-at tile5 row3 col1)
        (is-blank row2 col1)
      )
    :effect
      (and
        (not
          (tile-at tile5 row3 col1)
        )
        (not
          (is-blank row2 col1)
        )
        (tile-at tile5 row2 col1)
        (is-blank row3 col1)
      )
  )


  (:action move-tile-left
    :parameters (tile10 row3 col2 col1)
    :precondition
      (and
        (is-tile tile10)
        (is-row row3)
        (is-column col2)
        (is-column col1)
        (next-column col1 col2)
        (tile-at tile10 row3 col2)
        (is-blank row3 col1)
      )
    :effect
      (and
        (not
          (tile-at tile10 row3 col2)
        )
        (not
          (is-blank row3 col1)
        )
        (tile-at tile10 row3 col1)
        (is-blank row3 col2)
      )
  )


  (:action move-tile-down
    :parameters (tile9 row2 row3 col2)
    :precondition
      (and
        (is-tile tile9)
        (is-row row2)
        (is-row row3)
        (is-column col2)
        (next-row row2 row3)
        (tile-at tile9 row2 col2)
        (is-blank row3 col2)
      )
    :effect
      (and
        (not
          (tile-at tile9 row2 col2)
        )
        (not
          (is-blank row3 col2)
        )
        (tile-at tile9 row3 col2)
        (is-blank row2 col2)
      )
  )


  (:action move-tile-down
    :parameters (tile6 row1 row2 col2)
    :precondition
      (and
        (is-tile tile6)
        (is-row row1)
        (is-row row2)
        (is-column col2)
        (next-row row1 row2)
        (tile-at tile6 row1 col2)
        (is-blank row2 col2)
      )
    :effect
      (and
        (not
          (tile-at tile6 row1 col2)
        )
        (not
          (is-blank row2 col2)
        )
        (tile-at tile6 row2 col2)
        (is-blank row1 col2)
      )
  )


  (:action move-tile-left
    :parameters (tile2 row1 col3 col2)
    :precondition
      (and
        (is-tile tile2)
        (is-row row1)
        (is-column col3)
        (is-column col2)
        (next-column col2 col3)
        (tile-at tile2 row1 col3)
        (is-blank row1 col2)
      )
    :effect
      (and
        (not
          (tile-at tile2 row1 col3)
        )
        (not
          (is-blank row1 col2)
        )
        (tile-at tile2 row1 col2)
        (is-blank row1 col3)
      )
  )


  (:action move-tile-up
    :parameters (tile3 row2 row1 col3)
    :precondition
      (and
        (is-tile tile3)
        (is-row row2)
        (is-row row1)
        (is-column col3)
        (next-row row1 row2)
        (tile-at tile3 row2 col3)
        (is-blank row1 col3)
      )
    :effect
      (and
        (not
          (tile-at tile3 row2 col3)
        )
        (not
          (is-blank row1 col3)
        )
        (tile-at tile3 row1 col3)
        (is-blank row2 col3)
      )
  )


  (:action move-tile-up
    :parameters (tile7 row3 row2 col3)
    :precondition
      (and
        (is-tile tile7)
        (is-row row3)
        (is-row row2)
        (is-column col3)
        (next-row row2 row3)
        (tile-at tile7 row3 col3)
        (is-blank row2 col3)
      )
    :effect
      (and
        (not
          (tile-at tile7 row3 col3)
        )
        (not
          (is-blank row2 col3)
        )
        (tile-at tile7 row2 col3)
        (is-blank row3 col3)
      )
  )


  (:action move-tile-up
    :parameters (tile13 row4 row3 col3)
    :precondition
      (and
        (is-tile tile13)
        (is-row row4)
        (is-row row3)
        (is-column col3)
        (next-row row3 row4)
        (tile-at tile13 row4 col3)
        (is-blank row3 col3)
      )
    :effect
      (and
        (not
          (tile-at tile13 row4 col3)
        )
        (not
          (is-blank row3 col3)
        )
        (tile-at tile13 row3 col3)
        (is-blank row4 col3)
      )
  )


  (:action move-tile-right
    :parameters (tile14 row4 col2 col3)
    :precondition
      (and
        (is-tile tile14)
        (is-row row4)
        (is-column col2)
        (is-column col3)
        (next-column col2 col3)
        (tile-at tile14 row4 col2)
        (is-blank row4 col3)
      )
    :effect
      (and
        (not
          (tile-at tile14 row4 col2)
        )
        (not
          (is-blank row4 col3)
        )
        (tile-at tile14 row4 col3)
        (is-blank row4 col2)
      )
  )


  (:action move-tile-right
    :parameters (tile15 row4 col1 col2)
    :precondition
      (and
        (is-tile tile15)
        (is-row row4)
        (is-column col1)
        (is-column col2)
        (next-column col1 col2)
        (tile-at tile15 row4 col1)
        (is-blank row4 col2)
      )
    :effect
      (and
        (not
          (tile-at tile15 row4 col1)
        )
        (not
          (is-blank row4 col2)
        )
        (tile-at tile15 row4 col2)
        (is-blank row4 col1)
      )
  )


  (:action move-tile-down
    :parameters (tile10 row3 row4 col1)
    :precondition
      (and
        (is-tile tile10)
        (is-row row3)
        (is-row row4)
        (is-column col1)
        (next-row row3 row4)
        (tile-at tile10 row3 col1)
        (is-blank row4 col1)
      )
    :effect
      (and
        (not
          (tile-at tile10 row3 col1)
        )
        (not
          (is-blank row4 col1)
        )
        (tile-at tile10 row4 col1)
        (is-blank row3 col1)
      )
  )


  (:action move-tile-left
    :parameters (tile9 row3 col2 col1)
    :precondition
      (and
        (is-tile tile9)
        (is-row row3)
        (is-column col2)
        (is-column col1)
        (next-column col1 col2)
        (tile-at tile9 row3 col2)
        (is-blank row3 col1)
      )
    :effect
      (and
        (not
          (tile-at tile9 row3 col2)
        )
        (not
          (is-blank row3 col1)
        )
        (tile-at tile9 row3 col1)
        (is-blank row3 col2)
      )
  )


  (:action move-tile-left
    :parameters (tile13 row3 col3 col2)
    :precondition
      (and
        (is-tile tile13)
        (is-row row3)
        (is-column col3)
        (is-column col2)
        (next-column col2 col3)
        (tile-at tile13 row3 col3)
        (is-blank row3 col2)
      )
    :effect
      (and
        (not
          (tile-at tile13 row3 col3)
        )
        (not
          (is-blank row3 col2)
        )
        (tile-at tile13 row3 col2)
        (is-blank row3 col3)
      )
  )


  (:action move-tile-up
    :parameters (tile14 row4 row3 col3)
    :precondition
      (and
        (is-tile tile14)
        (is-row row4)
        (is-row row3)
        (is-column col3)
        (next-row row3 row4)
        (tile-at tile14 row4 col3)
        (is-blank row3 col3)
      )
    :effect
      (and
        (not
          (tile-at tile14 row4 col3)
        )
        (not
          (is-blank row3 col3)
        )
        (tile-at tile14 row3 col3)
        (is-blank row4 col3)
      )
  )


  (:action move-tile-right
    :parameters (tile15 row4 col2 col3)
    :precondition
      (and
        (is-tile tile15)
        (is-row row4)
        (is-column col2)
        (is-column col3)
        (next-column col2 col3)
        (tile-at tile15 row4 col2)
        (is-blank row4 col3)
      )
    :effect
      (and
        (not
          (tile-at tile15 row4 col2)
        )
        (not
          (is-blank row4 col3)
        )
        (tile-at tile15 row4 col3)
        (is-blank row4 col2)
      )
  )


  (:action move-tile-down
    :parameters (tile13 row3 row4 col2)
    :precondition
      (and
        (is-tile tile13)
        (is-row row3)
        (is-row row4)
        (is-column col2)
        (next-row row3 row4)
        (tile-at tile13 row3 col2)
        (is-blank row4 col2)
      )
    :effect
      (and
        (not
          (tile-at tile13 row3 col2)
        )
        (not
          (is-blank row4 col2)
        )
        (tile-at tile13 row4 col2)
        (is-blank row3 col2)
      )
  )


  (:action move-tile-left
    :parameters (tile14 row3 col3 col2)
    :precondition
      (and
        (is-tile tile14)
        (is-row row3)
        (is-column col3)
        (is-column col2)
        (next-column col2 col3)
        (tile-at tile14 row3 col3)
        (is-blank row3 col2)
      )
    :effect
      (and
        (not
          (tile-at tile14 row3 col3)
        )
        (not
          (is-blank row3 col2)
        )
        (tile-at tile14 row3 col2)
        (is-blank row3 col3)
      )
  )


  (:action move-tile-left
    :parameters (tile12 row3 col4 col3)
    :precondition
      (and
        (is-tile tile12)
        (is-row row3)
        (is-column col4)
        (is-column col3)
        (next-column col3 col4)
        (tile-at tile12 row3 col4)
        (is-blank row3 col3)
      )
    :effect
      (and
        (not
          (tile-at tile12 row3 col4)
        )
        (not
          (is-blank row3 col3)
        )
        (tile-at tile12 row3 col3)
        (is-blank row3 col4)
      )
  )


  (:action move-tile-down
    :parameters (tile4 row2 row3 col4)
    :precondition
      (and
        (is-tile tile4)
        (is-row row2)
        (is-row row3)
        (is-column col4)
        (next-row row2 row3)
        (tile-at tile4 row2 col4)
        (is-blank row3 col4)
      )
    :effect
      (and
        (not
          (tile-at tile4 row2 col4)
        )
        (not
          (is-blank row3 col4)
        )
        (tile-at tile4 row3 col4)
        (is-blank row2 col4)
      )
  )


  (:action move-tile-down
    :parameters (tile8 row1 row2 col4)
    :precondition
      (and
        (is-tile tile8)
        (is-row row1)
        (is-row row2)
        (is-column col4)
        (next-row row1 row2)
        (tile-at tile8 row1 col4)
        (is-blank row2 col4)
      )
    :effect
      (and
        (not
          (tile-at tile8 row1 col4)
        )
        (not
          (is-blank row2 col4)
        )
        (tile-at tile8 row2 col4)
        (is-blank row1 col4)
      )
  )


  (:action move-tile-right
    :parameters (tile3 row1 col3 col4)
    :precondition
      (and
        (is-tile tile3)
        (is-row row1)
        (is-column col3)
        (is-column col4)
        (next-column col3 col4)
        (tile-at tile3 row1 col3)
        (is-blank row1 col4)
      )
    :effect
      (and
        (not
          (tile-at tile3 row1 col3)
        )
        (not
          (is-blank row1 col4)
        )
        (tile-at tile3 row1 col4)
        (is-blank row1 col3)
      )
  )


  (:action move-tile-up
    :parameters (tile7 row2 row1 col3)
    :precondition
      (and
        (is-tile tile7)
        (is-row row2)
        (is-row row1)
        (is-column col3)
        (next-row row1 row2)
        (tile-at tile7 row2 col3)
        (is-blank row1 col3)
      )
    :effect
      (and
        (not
          (tile-at tile7 row2 col3)
        )
        (not
          (is-blank row1 col3)
        )
        (tile-at tile7 row1 col3)
        (is-blank row2 col3)
      )
  )


  (:action move-tile-left
    :parameters (tile8 row2 col4 col3)
    :precondition
      (and
        (is-tile tile8)
        (is-row row2)
        (is-column col4)
        (is-column col3)
        (next-column col3 col4)
        (tile-at tile8 row2 col4)
        (is-blank row2 col3)
      )
    :effect
      (and
        (not
          (tile-at tile8 row2 col4)
        )
        (not
          (is-blank row2 col3)
        )
        (tile-at tile8 row2 col3)
        (is-blank row2 col4)
      )
  )


  (:action move-tile-up
    :parameters (tile4 row3 row2 col4)
    :precondition
      (and
        (is-tile tile4)
        (is-row row3)
        (is-row row2)
        (is-column col4)
        (next-row row2 row3)
        (tile-at tile4 row3 col4)
        (is-blank row2 col4)
      )
    :effect
      (and
        (not
          (tile-at tile4 row3 col4)
        )
        (not
          (is-blank row2 col4)
        )
        (tile-at tile4 row2 col4)
        (is-blank row3 col4)
      )
  )


  (:action move-tile-right
    :parameters (tile12 row3 col3 col4)
    :precondition
      (and
        (is-tile tile12)
        (is-row row3)
        (is-column col3)
        (is-column col4)
        (next-column col3 col4)
        (tile-at tile12 row3 col3)
        (is-blank row3 col4)
      )
    :effect
      (and
        (not
          (tile-at tile12 row3 col3)
        )
        (not
          (is-blank row3 col4)
        )
        (tile-at tile12 row3 col4)
        (is-blank row3 col3)
      )
  )


  (:action move-tile-down
    :parameters (tile8 row2 row3 col3)
    :precondition
      (and
        (is-tile tile8)
        (is-row row2)
        (is-row row3)
        (is-column col3)
        (next-row row2 row3)
        (tile-at tile8 row2 col3)
        (is-blank row3 col3)
      )
    :effect
      (and
        (not
          (tile-at tile8 row2 col3)
        )
        (not
          (is-blank row3 col3)
        )
        (tile-at tile8 row3 col3)
        (is-blank row2 col3)
      )
  )


  (:action move-tile-down
    :parameters (tile7 row1 row2 col3)
    :precondition
      (and
        (is-tile tile7)
        (is-row row1)
        (is-row row2)
        (is-column col3)
        (next-row row1 row2)
        (tile-at tile7 row1 col3)
        (is-blank row2 col3)
      )
    :effect
      (and
        (not
          (tile-at tile7 row1 col3)
        )
        (not
          (is-blank row2 col3)
        )
        (tile-at tile7 row2 col3)
        (is-blank row1 col3)
      )
  )


  (:action move-tile-left
    :parameters (tile3 row1 col4 col3)
    :precondition
      (and
        (is-tile tile3)
        (is-row row1)
        (is-column col4)
        (is-column col3)
        (next-column col3 col4)
        (tile-at tile3 row1 col4)
        (is-blank row1 col3)
      )
    :effect
      (and
        (not
          (tile-at tile3 row1 col4)
        )
        (not
          (is-blank row1 col3)
        )
        (tile-at tile3 row1 col3)
        (is-blank row1 col4)
      )
  )


  (:action move-tile-up
    :parameters (tile4 row2 row1 col4)
    :precondition
      (and
        (is-tile tile4)
        (is-row row2)
        (is-row row1)
        (is-column col4)
        (next-row row1 row2)
        (tile-at tile4 row2 col4)
        (is-blank row1 col4)
      )
    :effect
      (and
        (not
          (tile-at tile4 row2 col4)
        )
        (not
          (is-blank row1 col4)
        )
        (tile-at tile4 row1 col4)
        (is-blank row2 col4)
      )
  )


  (:action move-tile-up
    :parameters (tile12 row3 row2 col4)
    :precondition
      (and
        (is-tile tile12)
        (is-row row3)
        (is-row row2)
        (is-column col4)
        (next-row row2 row3)
        (tile-at tile12 row3 col4)
        (is-blank row2 col4)
      )
    :effect
      (and
        (not
          (tile-at tile12 row3 col4)
        )
        (not
          (is-blank row2 col4)
        )
        (tile-at tile12 row2 col4)
        (is-blank row3 col4)
      )
  )


  (:action move-tile-up
    :parameters (tile11 row4 row3 col4)
    :precondition
      (and
        (is-tile tile11)
        (is-row row4)
        (is-row row3)
        (is-column col4)
        (next-row row3 row4)
        (tile-at tile11 row4 col4)
        (is-blank row3 col4)
      )
    :effect
      (and
        (not
          (tile-at tile11 row4 col4)
        )
        (not
          (is-blank row3 col4)
        )
        (tile-at tile11 row3 col4)
        (is-blank row4 col4)
      )
  )


  (:action move-tile-right
    :parameters (tile15 row4 col3 col4)
    :precondition
      (and
        (is-tile tile15)
        (is-row row4)
        (is-column col3)
        (is-column col4)
        (next-column col3 col4)
        (tile-at tile15 row4 col3)
        (is-blank row4 col4)
      )
    :effect
      (and
        (not
          (tile-at tile15 row4 col3)
        )
        (not
          (is-blank row4 col4)
        )
        (tile-at tile15 row4 col4)
        (is-blank row4 col3)
      )
  )


  (:action move-tile-down
    :parameters (tile8 row3 row4 col3)
    :precondition
      (and
        (is-tile tile8)
        (is-row row3)
        (is-row row4)
        (is-column col3)
        (next-row row3 row4)
        (tile-at tile8 row3 col3)
        (is-blank row4 col3)
      )
    :effect
      (and
        (not
          (tile-at tile8 row3 col3)
        )
        (not
          (is-blank row4 col3)
        )
        (tile-at tile8 row4 col3)
        (is-blank row3 col3)
      )
  )


  (:action move-tile-left
    :parameters (tile11 row3 col4 col3)
    :precondition
      (and
        (is-tile tile11)
        (is-row row3)
        (is-column col4)
        (is-column col3)
        (next-column col3 col4)
        (tile-at tile11 row3 col4)
        (is-blank row3 col3)
      )
    :effect
      (and
        (not
          (tile-at tile11 row3 col4)
        )
        (not
          (is-blank row3 col3)
        )
        (tile-at tile11 row3 col3)
        (is-blank row3 col4)
      )
  )


  (:action move-tile-up
    :parameters (tile15 row4 row3 col4)
    :precondition
      (and
        (is-tile tile15)
        (is-row row4)
        (is-row row3)
        (is-column col4)
        (next-row row3 row4)
        (tile-at tile15 row4 col4)
        (is-blank row3 col4)
      )
    :effect
      (and
        (not
          (tile-at tile15 row4 col4)
        )
        (not
          (is-blank row3 col4)
        )
        (tile-at tile15 row3 col4)
        (is-blank row4 col4)
      )
  )


  (:action move-tile-right
    :parameters (tile8 row4 col3 col4)
    :precondition
      (and
        (is-tile tile8)
        (is-row row4)
        (is-column col3)
        (is-column col4)
        (next-column col3 col4)
        (tile-at tile8 row4 col3)
        (is-blank row4 col4)
      )
    :effect
      (and
        (not
          (tile-at tile8 row4 col3)
        )
        (not
          (is-blank row4 col4)
        )
        (tile-at tile8 row4 col4)
        (is-blank row4 col3)
      )
  )


  (:action move-tile-right
    :parameters (tile13 row4 col2 col3)
    :precondition
      (and
        (is-tile tile13)
        (is-row row4)
        (is-column col2)
        (is-column col3)
        (next-column col2 col3)
        (tile-at tile13 row4 col2)
        (is-blank row4 col3)
      )
    :effect
      (and
        (not
          (tile-at tile13 row4 col2)
        )
        (not
          (is-blank row4 col3)
        )
        (tile-at tile13 row4 col3)
        (is-blank row4 col2)
      )
  )


  (:action move-tile-down
    :parameters (tile14 row3 row4 col2)
    :precondition
      (and
        (is-tile tile14)
        (is-row row3)
        (is-row row4)
        (is-column col2)
        (next-row row3 row4)
        (tile-at tile14 row3 col2)
        (is-blank row4 col2)
      )
    :effect
      (and
        (not
          (tile-at tile14 row3 col2)
        )
        (not
          (is-blank row4 col2)
        )
        (tile-at tile14 row4 col2)
        (is-blank row3 col2)
      )
  )


  (:action move-tile-left
    :parameters (tile11 row3 col3 col2)
    :precondition
      (and
        (is-tile tile11)
        (is-row row3)
        (is-column col3)
        (is-column col2)
        (next-column col2 col3)
        (tile-at tile11 row3 col3)
        (is-blank row3 col2)
      )
    :effect
      (and
        (not
          (tile-at tile11 row3 col3)
        )
        (not
          (is-blank row3 col2)
        )
        (tile-at tile11 row3 col2)
        (is-blank row3 col3)
      )
  )


  (:action move-tile-left
    :parameters (tile15 row3 col4 col3)
    :precondition
      (and
        (is-tile tile15)
        (is-row row3)
        (is-column col4)
        (is-column col3)
        (next-column col3 col4)
        (tile-at tile15 row3 col4)
        (is-blank row3 col3)
      )
    :effect
      (and
        (not
          (tile-at tile15 row3 col4)
        )
        (not
          (is-blank row3 col3)
        )
        (tile-at tile15 row3 col3)
        (is-blank row3 col4)
      )
  )


  (:action move-tile-up
    :parameters (tile8 row4 row3 col4)
    :precondition
      (and
        (is-tile tile8)
        (is-row row4)
        (is-row row3)
        (is-column col4)
        (next-row row3 row4)
        (tile-at tile8 row4 col4)
        (is-blank row3 col4)
      )
    :effect
      (and
        (not
          (tile-at tile8 row4 col4)
        )
        (not
          (is-blank row3 col4)
        )
        (tile-at tile8 row3 col4)
        (is-blank row4 col4)
      )
  )


  (:action move-tile-right
    :parameters (tile13 row4 col3 col4)
    :precondition
      (and
        (is-tile tile13)
        (is-row row4)
        (is-column col3)
        (is-column col4)
        (next-column col3 col4)
        (tile-at tile13 row4 col3)
        (is-blank row4 col4)
      )
    :effect
      (and
        (not
          (tile-at tile13 row4 col3)
        )
        (not
          (is-blank row4 col4)
        )
        (tile-at tile13 row4 col4)
        (is-blank row4 col3)
      )
  )


  (:action move-tile-right
    :parameters (tile14 row4 col2 col3)
    :precondition
      (and
        (is-tile tile14)
        (is-row row4)
        (is-column col2)
        (is-column col3)
        (next-column col2 col3)
        (tile-at tile14 row4 col2)
        (is-blank row4 col3)
      )
    :effect
      (and
        (not
          (tile-at tile14 row4 col2)
        )
        (not
          (is-blank row4 col3)
        )
        (tile-at tile14 row4 col3)
        (is-blank row4 col2)
      )
  )


  (:action move-tile-right
    :parameters (tile10 row4 col1 col2)
    :precondition
      (and
        (is-tile tile10)
        (is-row row4)
        (is-column col1)
        (is-column col2)
        (next-column col1 col2)
        (tile-at tile10 row4 col1)
        (is-blank row4 col2)
      )
    :effect
      (and
        (not
          (tile-at tile10 row4 col1)
        )
        (not
          (is-blank row4 col2)
        )
        (tile-at tile10 row4 col2)
        (is-blank row4 col1)
      )
  )


  (:action move-tile-down
    :parameters (tile9 row3 row4 col1)
    :precondition
      (and
        (is-tile tile9)
        (is-row row3)
        (is-row row4)
        (is-column col1)
        (next-row row3 row4)
        (tile-at tile9 row3 col1)
        (is-blank row4 col1)
      )
    :effect
      (and
        (not
          (tile-at tile9 row3 col1)
        )
        (not
          (is-blank row4 col1)
        )
        (tile-at tile9 row4 col1)
        (is-blank row3 col1)
      )
  )


  (:action move-tile-left
    :parameters (tile11 row3 col2 col1)
    :precondition
      (and
        (is-tile tile11)
        (is-row row3)
        (is-column col2)
        (is-column col1)
        (next-column col1 col2)
        (tile-at tile11 row3 col2)
        (is-blank row3 col1)
      )
    :effect
      (and
        (not
          (tile-at tile11 row3 col2)
        )
        (not
          (is-blank row3 col1)
        )
        (tile-at tile11 row3 col1)
        (is-blank row3 col2)
      )
  )


  (:action move-tile-up
    :parameters (tile10 row4 row3 col2)
    :precondition
      (and
        (is-tile tile10)
        (is-row row4)
        (is-row row3)
        (is-column col2)
        (next-row row3 row4)
        (tile-at tile10 row4 col2)
        (is-blank row3 col2)
      )
    :effect
      (and
        (not
          (tile-at tile10 row4 col2)
        )
        (not
          (is-blank row3 col2)
        )
        (tile-at tile10 row3 col2)
        (is-blank row4 col2)
      )
  )


  (:action move-tile-left
    :parameters (tile14 row4 col3 col2)
    :precondition
      (and
        (is-tile tile14)
        (is-row row4)
        (is-column col3)
        (is-column col2)
        (next-column col2 col3)
        (tile-at tile14 row4 col3)
        (is-blank row4 col2)
      )
    :effect
      (and
        (not
          (tile-at tile14 row4 col3)
        )
        (not
          (is-blank row4 col2)
        )
        (tile-at tile14 row4 col2)
        (is-blank row4 col3)
      )
  )


  (:action move-tile-down
    :parameters (tile15 row3 row4 col3)
    :precondition
      (and
        (is-tile tile15)
        (is-row row3)
        (is-row row4)
        (is-column col3)
        (next-row row3 row4)
        (tile-at tile15 row3 col3)
        (is-blank row4 col3)
      )
    :effect
      (and
        (not
          (tile-at tile15 row3 col3)
        )
        (not
          (is-blank row4 col3)
        )
        (tile-at tile15 row4 col3)
        (is-blank row3 col3)
      )
  )


  (:action move-tile-right
    :parameters (tile10 row3 col2 col3)
    :precondition
      (and
        (is-tile tile10)
        (is-row row3)
        (is-column col2)
        (is-column col3)
        (next-column col2 col3)
        (tile-at tile10 row3 col2)
        (is-blank row3 col3)
      )
    :effect
      (and
        (not
          (tile-at tile10 row3 col2)
        )
        (not
          (is-blank row3 col3)
        )
        (tile-at tile10 row3 col3)
        (is-blank row3 col2)
      )
  )


  (:action move-tile-right
    :parameters (tile11 row3 col1 col2)
    :precondition
      (and
        (is-tile tile11)
        (is-row row3)
        (is-column col1)
        (is-column col2)
        (next-column col1 col2)
        (tile-at tile11 row3 col1)
        (is-blank row3 col2)
      )
    :effect
      (and
        (not
          (tile-at tile11 row3 col1)
        )
        (not
          (is-blank row3 col2)
        )
        (tile-at tile11 row3 col2)
        (is-blank row3 col1)
      )
  )


  (:action move-tile-up
    :parameters (tile9 row4 row3 col1)
    :precondition
      (and
        (is-tile tile9)
        (is-row row4)
        (is-row row3)
        (is-column col1)
        (next-row row3 row4)
        (tile-at tile9 row4 col1)
        (is-blank row3 col1)
      )
    :effect
      (and
        (not
          (tile-at tile9 row4 col1)
        )
        (not
          (is-blank row3 col1)
        )
        (tile-at tile9 row3 col1)
        (is-blank row4 col1)
      )
  )


  (:action move-tile-left
    :parameters (tile14 row4 col2 col1)
    :precondition
      (and
        (is-tile tile14)
        (is-row row4)
        (is-column col2)
        (is-column col1)
        (next-column col1 col2)
        (tile-at tile14 row4 col2)
        (is-blank row4 col1)
      )
    :effect
      (and
        (not
          (tile-at tile14 row4 col2)
        )
        (not
          (is-blank row4 col1)
        )
        (tile-at tile14 row4 col1)
        (is-blank row4 col2)
      )
  )


  (:action move-tile-down
    :parameters (tile11 row3 row4 col2)
    :precondition
      (and
        (is-tile tile11)
        (is-row row3)
        (is-row row4)
        (is-column col2)
        (next-row row3 row4)
        (tile-at tile11 row3 col2)
        (is-blank row4 col2)
      )
    :effect
      (and
        (not
          (tile-at tile11 row3 col2)
        )
        (not
          (is-blank row4 col2)
        )
        (tile-at tile11 row4 col2)
        (is-blank row3 col2)
      )
  )


  (:action move-tile-left
    :parameters (tile10 row3 col3 col2)
    :precondition
      (and
        (is-tile tile10)
        (is-row row3)
        (is-column col3)
        (is-column col2)
        (next-column col2 col3)
        (tile-at tile10 row3 col3)
        (is-blank row3 col2)
      )
    :effect
      (and
        (not
          (tile-at tile10 row3 col3)
        )
        (not
          (is-blank row3 col2)
        )
        (tile-at tile10 row3 col2)
        (is-blank row3 col3)
      )
  )


  (:action move-tile-left
    :parameters (tile8 row3 col4 col3)
    :precondition
      (and
        (is-tile tile8)
        (is-row row3)
        (is-column col4)
        (is-column col3)
        (next-column col3 col4)
        (tile-at tile8 row3 col4)
        (is-blank row3 col3)
      )
    :effect
      (and
        (not
          (tile-at tile8 row3 col4)
        )
        (not
          (is-blank row3 col3)
        )
        (tile-at tile8 row3 col3)
        (is-blank row3 col4)
      )
  )


  (:action move-tile-up
    :parameters (tile13 row4 row3 col4)
    :precondition
      (and
        (is-tile tile13)
        (is-row row4)
        (is-row row3)
        (is-column col4)
        (next-row row3 row4)
        (tile-at tile13 row4 col4)
        (is-blank row3 col4)
      )
    :effect
      (and
        (not
          (tile-at tile13 row4 col4)
        )
        (not
          (is-blank row3 col4)
        )
        (tile-at tile13 row3 col4)
        (is-blank row4 col4)
      )
  )


  (:action move-tile-right
    :parameters (tile15 row4 col3 col4)
    :precondition
      (and
        (is-tile tile15)
        (is-row row4)
        (is-column col3)
        (is-column col4)
        (next-column col3 col4)
        (tile-at tile15 row4 col3)
        (is-blank row4 col4)
      )
    :effect
      (and
        (not
          (tile-at tile15 row4 col3)
        )
        (not
          (is-blank row4 col4)
        )
        (tile-at tile15 row4 col4)
        (is-blank row4 col3)
      )
  )


  (:action move-tile-down
    :parameters (tile8 row3 row4 col3)
    :precondition
      (and
        (is-tile tile8)
        (is-row row3)
        (is-row row4)
        (is-column col3)
        (next-row row3 row4)
        (tile-at tile8 row3 col3)
        (is-blank row4 col3)
      )
    :effect
      (and
        (not
          (tile-at tile8 row3 col3)
        )
        (not
          (is-blank row4 col3)
        )
        (tile-at tile8 row4 col3)
        (is-blank row3 col3)
      )
  )


  (:action move-tile-left
    :parameters (tile13 row3 col4 col3)
    :precondition
      (and
        (is-tile tile13)
        (is-row row3)
        (is-column col4)
        (is-column col3)
        (next-column col3 col4)
        (tile-at tile13 row3 col4)
        (is-blank row3 col3)
      )
    :effect
      (and
        (not
          (tile-at tile13 row3 col4)
        )
        (not
          (is-blank row3 col3)
        )
        (tile-at tile13 row3 col3)
        (is-blank row3 col4)
      )
  )


  (:action move-tile-down
    :parameters (tile12 row2 row3 col4)
    :precondition
      (and
        (is-tile tile12)
        (is-row row2)
        (is-row row3)
        (is-column col4)
        (next-row row2 row3)
        (tile-at tile12 row2 col4)
        (is-blank row3 col4)
      )
    :effect
      (and
        (not
          (tile-at tile12 row2 col4)
        )
        (not
          (is-blank row3 col4)
        )
        (tile-at tile12 row3 col4)
        (is-blank row2 col4)
      )
  )


  (:action move-tile-right
    :parameters (tile7 row2 col3 col4)
    :precondition
      (and
        (is-tile tile7)
        (is-row row2)
        (is-column col3)
        (is-column col4)
        (next-column col3 col4)
        (tile-at tile7 row2 col3)
        (is-blank row2 col4)
      )
    :effect
      (and
        (not
          (tile-at tile7 row2 col3)
        )
        (not
          (is-blank row2 col4)
        )
        (tile-at tile7 row2 col4)
        (is-blank row2 col3)
      )
  )


  (:action move-tile-up
    :parameters (tile13 row3 row2 col3)
    :precondition
      (and
        (is-tile tile13)
        (is-row row3)
        (is-row row2)
        (is-column col3)
        (next-row row2 row3)
        (tile-at tile13 row3 col3)
        (is-blank row2 col3)
      )
    :effect
      (and
        (not
          (tile-at tile13 row3 col3)
        )
        (not
          (is-blank row2 col3)
        )
        (tile-at tile13 row2 col3)
        (is-blank row3 col3)
      )
  )


  (:action move-tile-up
    :parameters (tile8 row4 row3 col3)
    :precondition
      (and
        (is-tile tile8)
        (is-row row4)
        (is-row row3)
        (is-column col3)
        (next-row row3 row4)
        (tile-at tile8 row4 col3)
        (is-blank row3 col3)
      )
    :effect
      (and
        (not
          (tile-at tile8 row4 col3)
        )
        (not
          (is-blank row3 col3)
        )
        (tile-at tile8 row3 col3)
        (is-blank row4 col3)
      )
  )


  (:action move-tile-left
    :parameters (tile15 row4 col4 col3)
    :precondition
      (and
        (is-tile tile15)
        (is-row row4)
        (is-column col4)
        (is-column col3)
        (next-column col3 col4)
        (tile-at tile15 row4 col4)
        (is-blank row4 col3)
      )
    :effect
      (and
        (not
          (tile-at tile15 row4 col4)
        )
        (not
          (is-blank row4 col3)
        )
        (tile-at tile15 row4 col3)
        (is-blank row4 col4)
      )
  )


  (:action move-tile-down
    :parameters (tile12 row3 row4 col4)
    :precondition
      (and
        (is-tile tile12)
        (is-row row3)
        (is-row row4)
        (is-column col4)
        (next-row row3 row4)
        (tile-at tile12 row3 col4)
        (is-blank row4 col4)
      )
    :effect
      (and
        (not
          (tile-at tile12 row3 col4)
        )
        (not
          (is-blank row4 col4)
        )
        (tile-at tile12 row4 col4)
        (is-blank row3 col4)
      )
  )


  (:action move-tile-right
    :parameters (tile8 row3 col3 col4)
    :precondition
      (and
        (is-tile tile8)
        (is-row row3)
        (is-column col3)
        (is-column col4)
        (next-column col3 col4)
        (tile-at tile8 row3 col3)
        (is-blank row3 col4)
      )
    :effect
      (and
        (not
          (tile-at tile8 row3 col3)
        )
        (not
          (is-blank row3 col4)
        )
        (tile-at tile8 row3 col4)
        (is-blank row3 col3)
      )
  )


  (:action move-tile-down
    :parameters (tile13 row2 row3 col3)
    :precondition
      (and
        (is-tile tile13)
        (is-row row2)
        (is-row row3)
        (is-column col3)
        (next-row row2 row3)
        (tile-at tile13 row2 col3)
        (is-blank row3 col3)
      )
    :effect
      (and
        (not
          (tile-at tile13 row2 col3)
        )
        (not
          (is-blank row3 col3)
        )
        (tile-at tile13 row3 col3)
        (is-blank row2 col3)
      )
  )


  (:action move-tile-left
    :parameters (tile7 row2 col4 col3)
    :precondition
      (and
        (is-tile tile7)
        (is-row row2)
        (is-column col4)
        (is-column col3)
        (next-column col3 col4)
        (tile-at tile7 row2 col4)
        (is-blank row2 col3)
      )
    :effect
      (and
        (not
          (tile-at tile7 row2 col4)
        )
        (not
          (is-blank row2 col3)
        )
        (tile-at tile7 row2 col3)
        (is-blank row2 col4)
      )
  )


  (:action move-tile-up
    :parameters (tile8 row3 row2 col4)
    :precondition
      (and
        (is-tile tile8)
        (is-row row3)
        (is-row row2)
        (is-column col4)
        (next-row row2 row3)
        (tile-at tile8 row3 col4)
        (is-blank row2 col4)
      )
    :effect
      (and
        (not
          (tile-at tile8 row3 col4)
        )
        (not
          (is-blank row2 col4)
        )
        (tile-at tile8 row2 col4)
        (is-blank row3 col4)
      )
  )


  (:action move-tile-up
    :parameters (tile12 row4 row3 col4)
    :precondition
      (and
        (is-tile tile12)
        (is-row row4)
        (is-row row3)
        (is-column col4)
        (next-row row3 row4)
        (tile-at tile12 row4 col4)
        (is-blank row3 col4)
      )
    :effect
      (and
        (not
          (tile-at tile12 row4 col4)
        )
        (not
          (is-blank row3 col4)
        )
        (tile-at tile12 row3 col4)
        (is-blank row4 col4)
      )
  )


  (:action move-tile-right
    :parameters (tile15 row4 col3 col4)
    :precondition
      (and
        (is-tile tile15)
        (is-row row4)
        (is-column col3)
        (is-column col4)
        (next-column col3 col4)
        (tile-at tile15 row4 col3)
        (is-blank row4 col4)
      )
    :effect
      (and
        (not
          (tile-at tile15 row4 col3)
        )
        (not
          (is-blank row4 col4)
        )
        (tile-at tile15 row4 col4)
        (is-blank row4 col3)
      )
  )


  (:action move-tile-right
    :parameters (tile11 row4 col2 col3)
    :precondition
      (and
        (is-tile tile11)
        (is-row row4)
        (is-column col2)
        (is-column col3)
        (next-column col2 col3)
        (tile-at tile11 row4 col2)
        (is-blank row4 col3)
      )
    :effect
      (and
        (not
          (tile-at tile11 row4 col2)
        )
        (not
          (is-blank row4 col3)
        )
        (tile-at tile11 row4 col3)
        (is-blank row4 col2)
      )
  )


  (:action move-tile-right
    :parameters (tile14 row4 col1 col2)
    :precondition
      (and
        (is-tile tile14)
        (is-row row4)
        (is-column col1)
        (is-column col2)
        (next-column col1 col2)
        (tile-at tile14 row4 col1)
        (is-blank row4 col2)
      )
    :effect
      (and
        (not
          (tile-at tile14 row4 col1)
        )
        (not
          (is-blank row4 col2)
        )
        (tile-at tile14 row4 col2)
        (is-blank row4 col1)
      )
  )


  (:action move-tile-down
    :parameters (tile9 row3 row4 col1)
    :precondition
      (and
        (is-tile tile9)
        (is-row row3)
        (is-row row4)
        (is-column col1)
        (next-row row3 row4)
        (tile-at tile9 row3 col1)
        (is-blank row4 col1)
      )
    :effect
      (and
        (not
          (tile-at tile9 row3 col1)
        )
        (not
          (is-blank row4 col1)
        )
        (tile-at tile9 row4 col1)
        (is-blank row3 col1)
      )
  )


  (:action move-tile-left
    :parameters (tile10 row3 col2 col1)
    :precondition
      (and
        (is-tile tile10)
        (is-row row3)
        (is-column col2)
        (is-column col1)
        (next-column col1 col2)
        (tile-at tile10 row3 col2)
        (is-blank row3 col1)
      )
    :effect
      (and
        (not
          (tile-at tile10 row3 col2)
        )
        (not
          (is-blank row3 col1)
        )
        (tile-at tile10 row3 col1)
        (is-blank row3 col2)
      )
  )


  (:action move-tile-left
    :parameters (tile13 row3 col3 col2)
    :precondition
      (and
        (is-tile tile13)
        (is-row row3)
        (is-column col3)
        (is-column col2)
        (next-column col2 col3)
        (tile-at tile13 row3 col3)
        (is-blank row3 col2)
      )
    :effect
      (and
        (not
          (tile-at tile13 row3 col3)
        )
        (not
          (is-blank row3 col2)
        )
        (tile-at tile13 row3 col2)
        (is-blank row3 col3)
      )
  )


  (:action move-tile-up
    :parameters (tile11 row4 row3 col3)
    :precondition
      (and
        (is-tile tile11)
        (is-row row4)
        (is-row row3)
        (is-column col3)
        (next-row row3 row4)
        (tile-at tile11 row4 col3)
        (is-blank row3 col3)
      )
    :effect
      (and
        (not
          (tile-at tile11 row4 col3)
        )
        (not
          (is-blank row3 col3)
        )
        (tile-at tile11 row3 col3)
        (is-blank row4 col3)
      )
  )


  (:action move-tile-right
    :parameters (tile14 row4 col2 col3)
    :precondition
      (and
        (is-tile tile14)
        (is-row row4)
        (is-column col2)
        (is-column col3)
        (next-column col2 col3)
        (tile-at tile14 row4 col2)
        (is-blank row4 col3)
      )
    :effect
      (and
        (not
          (tile-at tile14 row4 col2)
        )
        (not
          (is-blank row4 col3)
        )
        (tile-at tile14 row4 col3)
        (is-blank row4 col2)
      )
  )


  (:action move-tile-down
    :parameters (tile13 row3 row4 col2)
    :precondition
      (and
        (is-tile tile13)
        (is-row row3)
        (is-row row4)
        (is-column col2)
        (next-row row3 row4)
        (tile-at tile13 row3 col2)
        (is-blank row4 col2)
      )
    :effect
      (and
        (not
          (tile-at tile13 row3 col2)
        )
        (not
          (is-blank row4 col2)
        )
        (tile-at tile13 row4 col2)
        (is-blank row3 col2)
      )
  )


  (:action move-tile-right
    :parameters (tile10 row3 col1 col2)
    :precondition
      (and
        (is-tile tile10)
        (is-row row3)
        (is-column col1)
        (is-column col2)
        (next-column col1 col2)
        (tile-at tile10 row3 col1)
        (is-blank row3 col2)
      )
    :effect
      (and
        (not
          (tile-at tile10 row3 col1)
        )
        (not
          (is-blank row3 col2)
        )
        (tile-at tile10 row3 col2)
        (is-blank row3 col1)
      )
  )


  (:action move-tile-up
    :parameters (tile9 row4 row3 col1)
    :precondition
      (and
        (is-tile tile9)
        (is-row row4)
        (is-row row3)
        (is-column col1)
        (next-row row3 row4)
        (tile-at tile9 row4 col1)
        (is-blank row3 col1)
      )
    :effect
      (and
        (not
          (tile-at tile9 row4 col1)
        )
        (not
          (is-blank row3 col1)
        )
        (tile-at tile9 row3 col1)
        (is-blank row4 col1)
      )
  )


  (:action move-tile-left
    :parameters (tile13 row4 col2 col1)
    :precondition
      (and
        (is-tile tile13)
        (is-row row4)
        (is-column col2)
        (is-column col1)
        (next-column col1 col2)
        (tile-at tile13 row4 col2)
        (is-blank row4 col1)
      )
    :effect
      (and
        (not
          (tile-at tile13 row4 col2)
        )
        (not
          (is-blank row4 col1)
        )
        (tile-at tile13 row4 col1)
        (is-blank row4 col2)
      )
  )


  (:action move-tile-left
    :parameters (tile14 row4 col3 col2)
    :precondition
      (and
        (is-tile tile14)
        (is-row row4)
        (is-column col3)
        (is-column col2)
        (next-column col2 col3)
        (tile-at tile14 row4 col3)
        (is-blank row4 col2)
      )
    :effect
      (and
        (not
          (tile-at tile14 row4 col3)
        )
        (not
          (is-blank row4 col2)
        )
        (tile-at tile14 row4 col2)
        (is-blank row4 col3)
      )
  )


  (:action move-tile-left
    :parameters (tile15 row4 col4 col3)
    :precondition
      (and
        (is-tile tile15)
        (is-row row4)
        (is-column col4)
        (is-column col3)
        (next-column col3 col4)
        (tile-at tile15 row4 col4)
        (is-blank row4 col3)
      )
    :effect
      (and
        (not
          (tile-at tile15 row4 col4)
        )
        (not
          (is-blank row4 col3)
        )
        (tile-at tile15 row4 col3)
        (is-blank row4 col4)
      )
  )